{"data":{"allMarkdownRemark":{"pageInfo":{"currentPage":1,"hasNextPage":true},"totalCount":6,"nodes":[{"frontmatter":{"author":"李嘉欣","category":{"name":"frontend","title":"前端"},"date":"2019-12-10T00:00:00.000Z","description":"","image":"","layout":null,"path":null,"tags":["Time"],"title":"useIntersectionObserver"}},{"frontmatter":{"author":"XiYiZi","category":{"name":"frontend","title":"前端"},"date":"2019-03-10T10:00:00.000Z","description":null,"image":"img/xiyizhou.jpg","layout":"post","path":null,"tags":["Time"],"title":"project_rewrite"}},{"frontmatter":{"author":"XiYiZi","category":{"name":"frontend","title":"前端"},"date":"2019-03-10T10:00:00.000Z","description":null,"image":"img/xiyizhou.jpg","layout":"post","path":null,"tags":["Time"],"title":"Github Source"}}]}}}